[gd_resource type="DynamicFont" load_steps=2 format=2]

[ext_resource path="res://ui/alagard.ttf" type="DynamicFontData" id=1]

[resource]
outline_color = Color( 0.207843, 0.207843, 0.207843, 1 )
font_data = ExtResource( 1 )
